Statistical Analysis: Valence Processing
…
Accuracy (whether the response was correct)

Reaction time (RT) in milliseconds

Initial Inspection of the Data

Before conducting statistical analyses, the dataset is filtered to
include only experimental trials containing real words. This removes
practice items and nonword trials.

# Remove all practice items, remove all nonword trials
pre_filtered_df <- subset(descr_df, Item_type == "exp" & Condition == "word")
pre_filtered_df

## # A tibble: 1,530 × 10
##    Accuracy Condition Emotional_valence_cat Emotional_valence_cont Item_type
##       <dbl> <chr>     <chr>                 <chr>                  <chr>    
##  1        1 word      negative              2.74                   exp      
##  2        1 word      negative              2.18                   exp      
##  3        1 word      negative              1.9                    exp      
##  4        1 word      positive              7.24                   exp      
##  5        1 word      neutral               5.02                   exp      
##  6        1 word      neutral               5.5                    exp      
##  7        1 word      neutral               5.18                   exp      
##  8        1 word      neutral               5.48                   exp      
##  9        1 word      positive              7.11                   exp      
## 10        1 word      neutral               4.81                   exp      
## # ℹ 1,520 more rows
## # ℹ 5 more variables: Length <dbl>, Lg10SUBTLEX_US <chr>, Participant <dbl>,
## #   RT <dbl>, Stimulus <chr>
…
One participant (ID 2400) shows extremely low accuracy (0.2, thus
approximately 2%). This strongly suggests that the participant did not
perform the task correctly. Therefore, this participant is removed from
the dataset.

We plot again to visualize what the data looks like now.

# Remove participant from the dataset
filtered_df <- subset(pre_filtered_df, !(Participant %in% c("2400")))
filtered_df

## # A tibble: 1,440 × 10
##    Accuracy Condition Emotional_valence_cat Emotional_valence_cont Item_type
##       <dbl> <chr>     <chr>                 <chr>                  <chr>    
##  1        1 word      negative              2.74                   exp      
##  2        1 word      negative              2.18                   exp      
##  3        1 word      negative              1.9                    exp      
##  4        1 word      positive              7.24                   exp      
##  5        1 word      neutral               5.02                   exp      
##  6        1 word      neutral               5.5                    exp      
##  7        1 word      neutral               5.18                   exp      
##  8        1 word      neutral               5.48                   exp      
##  9        1 word      positive              7.11                   exp      
## 10        1 word      neutral               4.81                   exp      
## # ℹ 1,430 more rows
## # ℹ 5 more variables: Length <dbl>, Lg10SUBTLEX_US <chr>, Participant <dbl>,
## #   RT <dbl>, Stimulus <chr>
…
